{
    "CARD": {
        "a": {
            "3": [
                0.0010628373343535495,
                0.2577618810460873,
                0.979126159365341
            ],
            "5": [
                0.0,
                0.008457043994532929,
                0.25907833107773504,
                0.6420074464725035,
                0.992661900640643
            ],
            "7": [
                0.0,
                0.0,
                0.008834247390469542,
                0.0813118200290817,
                0.3276146591009716,
                0.689803257222445,
                0.9940917226801368
            ]
        },
        "b": {
            "3": [
                -0.16630199049295566,
                -99.17877831703667,
                -464.37881626610897
            ],
            "5": [
                0.0,
                -2.227796807883732,
                -103.75557540659469,
                -283.3940732258046,
                -474.0584979265185
            ],
            "7": [
                0.0,
                0.0,
                -2.564335726532785,
                -29.778631463183707,
                -134.12220455361089,
                -307.8064095234278,
                -475.1088692823913
            ]
        }
    },
    "GASTRO": {
        "a": {
            "3": [
                0.00331970619995105,
                0.28272561561568516,
                0.9703565980999178
            ],
            "5": [
                0.0,
                0.015266605228729059,
                0.27499202094353115,
                0.629375106719876,
                0.9854554399972818
            ],
            "7": [
                0.0,
                0.00021592549722247918,
                0.025680908672099184,
                0.1549497062892431,
                0.3150819439399401,
                0.6435430389163082,
                0.9873971589689841
            ]
        },
        "b": {
            "3": [
                -0.5377633378436466,
                -105.65641201428963,
                -457.3596657342214
            ],
            "5": [
                0.0,
                -3.4805639671584934,
                -105.77928262873097,
                -272.01191938290606,
                -468.6416054969215
            ],
            "7": [
                0.0,
                -0.0385318129617874,
                -7.2469146513538165,
                -55.727488834655944,
                -123.58323244371832,
                -279.3009531063891,
                -470.11821315813853
            ]
        }
    },
    "GYN": {
        "a": {
            "3": [
                0.002768747776395577,
                0.27945262370764484,
                0.9799227399337823
            ],
            "5": [
                0.0,
                0.009806403862025834,
                0.2728239477526351,
                0.6348095796208549,
                0.9894295172870593
            ],
            "7": [
                0.0,
                4.0170068819139694e-05,
                0.018285376283887766,
                0.09363907801140407,
                0.28871885493769106,
                0.6848748631583641,
                0.9930116277437192
            ]
        },
        "b": {
            "3": [
                -0.44487153593007495,
                -106.33085433400662,
                -463.4192214646846
            ],
            "5": [
                0.0,
                -2.0136758568503517,
                -106.77378977201907,
                -277.3667556417034,
                -470.8841824489169
            ],
            "7": [
                0.0,
                -0.006588251265634556,
                -5.094687423923995,
                -33.536756067712815,
                -113.42342121440065,
                -302.6245389822362,
                -473.7725813390701
            ]
        }
    },
    "MED": {
        "a": {
            "3": [
                0.014662090792133159,
                0.33210515041880606,
                0.9385811830329506
            ],
            "5": [
                0.0,
                0.04698599919302801,
                0.33884956674376404,
                0.6830037512657084,
                0.9581944098617811
            ],
            "7": [
                0.0,
                0.0017340977391818863,
                0.07182173535868551,
                0.2797553146540799,
                0.37300902011303727,
                0.6429458800797,
                0.9635567002714377
            ]
        },
        "b": {
            "3": [
                -2.2195972323261586,
                -119.04522168873213,
                -430.7026374614595
            ],
            "5": [
                0.0,
                -10.5129143345843,
                -124.40117139369461,
                -287.3530698316874,
                -445.7657751202484
            ],
            "7": [
                0.0,
                -0.267810077226348,
                -19.574555610104067,
                -98.8545962978585,
                -140.2499664229855,
                -266.7543938498584,
                -449.9723272386564
            ]
        }
    },
    "ORTH": {
        "a": {
            "3": [
                0.0005167998603274089,
                0.2460583308904759,
                0.9823620762760421
            ],
            "5": [
                0.0,
                0.005296597350865698,
                0.22699530508663476,
                0.6246199887087244,
                0.9976418717798969
            ],
            "7": [
                0.0,
                0.0,
                0.0044468276322621346,
                0.05904734114549991,
                0.3184085112146365,
                0.7617834239200674,
                0.9995685878125372
            ]
        },
        "b": {
            "3": [
                -0.09716486408256599,
                -95.61940755372022,
                -467.32331162258316
            ],
            "5": [
                0.0,
                -1.309011736093196,
                -91.16623266171338,
                -277.3701769446905,
                -477.5998582900296
            ],
            "7": [
                0.0,
                0.0,
                -1.2613427200444343,
                -21.273023852895996,
                -131.49955832850162,
                -347.51122675210945,
                -478.92182477480355
            ]
        }
    },
    "URO": {
        "a": {
            "3": [
                0.0002368481770963367,
                0.2357828202553718,
                0.9746211980452031
            ],
            "5": [
                0.0,
                0.004913112690102495,
                0.21277301661081904,
                0.6779852055917822,
                0.9927767767407204
            ],
            "7": [
                0.0,
                0.0,
                0.004522622207769869,
                0.04854548215989205,
                0.31190326309783806,
                0.7398550636701172,
                0.9935749871211018
            ]
        },
        "b": {
            "3": [
                -0.04031274178954201,
                -91.24767737011034,
                -462.8856974638262
            ],
            "5": [
                0.0,
                -1.3085422375435634,
                -85.79602746702572,
                -304.67524097935916,
                -474.66618356175474
            ],
            "7": [
                0.0,
                0.0,
                -1.3128728893415913,
                -17.85833066406885,
                -129.96775820780366,
                -336.7211585476582,
                -475.1939204270528
            ]
        }
    }
}